<?xml version="1.0" encoding="UTF-8" standalone="no"?>
<!-- Created with Inkscape (http://www.inkscape.org/) -->

<svg
   xmlns:dc="http://purl.org/dc/elements/1.1/"
   xmlns:cc="http://creativecommons.org/ns#"
   xmlns:rdf="http://www.w3.org/1999/02/22-rdf-syntax-ns#"
   xmlns:svg="http://www.w3.org/2000/svg"
   xmlns="http://www.w3.org/2000/svg"
   xmlns:sodipodi="http://sodipodi.sourceforge.net/DTD/sodipodi-0.dtd"
   xmlns:inkscape="http://www.inkscape.org/namespaces/inkscape"
   width="744.09448819"
   height="1052.3622047"
   id="svg2"
   sodipodi:version="0.32"
   inkscape:version="0.46+devel"
   sodipodi:docname="moo_mini_cards.svg"
   inkscape:output_extension="org.inkscape.output.svg.inkscape">
  <defs
     id="defs4">
    <inkscape:perspective
       sodipodi:type="inkscape:persp3d"
       inkscape:vp_x="0 : 526.18109 : 1"
       inkscape:vp_y="0 : 1000 : 0"
       inkscape:vp_z="744.09448 : 526.18109 : 1"
       inkscape:persp3d-origin="372.04724 : 350.78739 : 1"
       id="perspective10" />
    <inkscape:perspective
       id="perspective22"
       inkscape:persp3d-origin="0.5 : 0.33333333 : 1"
       inkscape:vp_z="1 : 0.5 : 1"
       inkscape:vp_y="0 : 1000 : 0"
       inkscape:vp_x="0 : 0.5 : 1"
       sodipodi:type="inkscape:persp3d" />
    <inkscape:perspective
       id="perspective22-6"
       inkscape:persp3d-origin="0.5 : 0.33333333 : 1"
       inkscape:vp_z="1 : 0.5 : 1"
       inkscape:vp_y="0 : 1000 : 0"
       inkscape:vp_x="0 : 0.5 : 1"
       sodipodi:type="inkscape:persp3d" />
    <inkscape:perspective
       id="perspective22-8"
       inkscape:persp3d-origin="0.5 : 0.33333333 : 1"
       inkscape:vp_z="1 : 0.5 : 1"
       inkscape:vp_y="0 : 1000 : 0"
       inkscape:vp_x="0 : 0.5 : 1"
       sodipodi:type="inkscape:persp3d" />
    <inkscape:perspective
       id="perspective131"
       inkscape:persp3d-origin="0.5 : 0.33333333 : 1"
       inkscape:vp_z="1 : 0.5 : 1"
       inkscape:vp_y="0 : 1000 : 0"
       inkscape:vp_x="0 : 0.5 : 1"
       sodipodi:type="inkscape:persp3d" />
    <clipPath
       clipPathUnits="userSpaceOnUse"
       id="clipPath2960">
      <rect
         clip-path="url(#clipPath3337)"
         y="79.768837"
         x="-195.29546"
         height="370.90997"
         width="173.34364"
         id="rect2962"
         style="fill:#edd400;fill-opacity:1;stroke:none"
         transform="matrix(0.4999447,0,0,1,-11.16638,-0.378465)" />
    </clipPath>
    <clipPath
       clipPathUnits="userSpaceOnUse"
       id="clipPath2956">
      <rect
         clip-path="url(#clipPath3337)"
         y="79.768837"
         x="-195.29546"
         height="370.90997"
         width="173.34364"
         id="rect2958"
         style="fill:#edd400;fill-opacity:1;stroke:none"
         transform="matrix(0.3535143,0.3535143,-0.7071068,0.7071068,-7.6282079,-8.1634383)" />
    </clipPath>
    <clipPath
       clipPathUnits="userSpaceOnUse"
       id="clipPath2952">
      <rect
         clip-path="url(#clipPath3337)"
         y="79.768837"
         x="-195.29546"
         height="370.90997"
         width="173.34364"
         id="rect2954"
         style="fill:#edd400;fill-opacity:1;stroke:none"
         transform="matrix(0.3535143,0.3535143,-0.7071068,0.7071068,-7.6282079,-8.1634383)" />
    </clipPath>
    <clipPath
       clipPathUnits="userSpaceOnUse"
       id="clipPath2948">
      <rect
         clip-path="url(#clipPath3337)"
         y="79.768837"
         x="-195.29546"
         height="370.90997"
         width="173.34364"
         id="rect2950"
         style="fill:#edd400;fill-opacity:1;stroke:none"
         transform="matrix(0.3535143,0.3535143,-0.7071068,0.7071068,-7.6282079,-8.1634383)" />
    </clipPath>
    <clipPath
       clipPathUnits="userSpaceOnUse"
       id="clipPath2944">
      <rect
         clip-path="url(#clipPath3337)"
         y="79.768837"
         x="-195.29546"
         height="370.90997"
         width="173.34364"
         id="rect2946"
         style="fill:#edd400;fill-opacity:1;stroke:none"
         transform="matrix(0.3535143,0.3535143,-0.7071068,0.7071068,-7.6282079,-8.1634383)" />
    </clipPath>
    <clipPath
       clipPathUnits="userSpaceOnUse"
       id="clipPath2940">
      <rect
         clip-path="url(#clipPath3337)"
         y="79.768837"
         x="-195.29546"
         height="370.90997"
         width="173.34364"
         id="rect2942"
         style="fill:#edd400;fill-opacity:1;stroke:none"
         transform="matrix(0.3535143,0.3535143,-0.7071068,0.7071068,-7.6282079,-8.1634383)" />
    </clipPath>
    <clipPath
       clipPathUnits="userSpaceOnUse"
       id="clipPath2936">
      <rect
         clip-path="url(#clipPath3337)"
         y="79.768837"
         x="-195.29546"
         height="370.90997"
         width="173.34364"
         id="rect2938"
         style="fill:#edd400;fill-opacity:1;stroke:none"
         transform="matrix(0.3535143,0.3535143,-0.7071068,0.7071068,-7.6282079,-8.1634383)" />
    </clipPath>
    <clipPath
       clipPathUnits="userSpaceOnUse"
       id="clipPath2932">
      <rect
         clip-path="url(#clipPath3337)"
         y="79.768837"
         x="-195.29546"
         height="370.90997"
         width="173.34364"
         id="rect2934"
         style="fill:#edd400;fill-opacity:1;stroke:none"
         transform="matrix(0.3535143,0.3535143,-0.7071068,0.7071068,-7.6282079,-8.1634383)" />
    </clipPath>
    <clipPath
       clipPathUnits="userSpaceOnUse"
       id="clipPath2928">
      <rect
         clip-path="url(#clipPath3337)"
         y="79.768837"
         x="-195.29546"
         height="370.90997"
         width="173.34364"
         id="rect2930"
         style="fill:#edd400;fill-opacity:1;stroke:none"
         transform="matrix(0.3535143,0.3535143,-0.7071068,0.7071068,-7.6282079,-8.1634383)" />
    </clipPath>
    <clipPath
       clipPathUnits="userSpaceOnUse"
       id="clipPath2924">
      <rect
         clip-path="url(#clipPath3337)"
         y="79.768837"
         x="-195.29546"
         height="370.90997"
         width="173.34364"
         id="rect2926"
         style="fill:#edd400;fill-opacity:1;stroke:none"
         transform="matrix(0.3535143,0.3535143,-0.7071068,0.7071068,-7.6282079,-8.1634383)" />
    </clipPath>
    <clipPath
       clipPathUnits="userSpaceOnUse"
       id="clipPath2920">
      <rect
         clip-path="url(#clipPath3337)"
         y="79.768837"
         x="-195.29546"
         height="370.90997"
         width="173.34364"
         id="rect2922"
         style="fill:#edd400;fill-opacity:1;stroke:none"
         transform="matrix(0.3535143,0.3535143,-0.7071068,0.7071068,-7.6282079,-8.1634383)" />
    </clipPath>
    <clipPath
       clipPathUnits="userSpaceOnUse"
       id="clipPath157">
      <rect
         clip-path="url(#clipPath3337)"
         y="79.768837"
         x="-195.29546"
         height="370.90997"
         width="173.34364"
         id="rect159"
         style="fill:#edd400;fill-opacity:1;stroke:none"
         transform="matrix(0.4999447,0,0,1,-11.16638,-0.378465)" />
    </clipPath>
    <clipPath
       clipPathUnits="userSpaceOnUse"
       id="clipPath161">
      <rect
         clip-path="url(#clipPath3337)"
         y="79.768837"
         x="-195.29546"
         height="370.90997"
         width="173.34364"
         id="rect163"
         style="fill:#edd400;fill-opacity:1;stroke:none"
         transform="matrix(0.3535143,0.3535143,-0.7071068,0.7071068,-7.6282079,-8.1634383)" />
    </clipPath>
    <clipPath
       clipPathUnits="userSpaceOnUse"
       id="clipPath165">
      <rect
         clip-path="url(#clipPath3337)"
         y="79.768837"
         x="-195.29546"
         height="370.90997"
         width="173.34364"
         id="rect167"
         style="fill:#edd400;fill-opacity:1;stroke:none"
         transform="matrix(0.3535143,0.3535143,-0.7071068,0.7071068,-7.6282079,-8.1634383)" />
    </clipPath>
    <clipPath
       clipPathUnits="userSpaceOnUse"
       id="clipPath169">
      <rect
         clip-path="url(#clipPath3337)"
         y="79.768837"
         x="-195.29546"
         height="370.90997"
         width="173.34364"
         id="rect171"
         style="fill:#edd400;fill-opacity:1;stroke:none"
         transform="matrix(0.3535143,0.3535143,-0.7071068,0.7071068,-7.6282079,-8.1634383)" />
    </clipPath>
    <clipPath
       clipPathUnits="userSpaceOnUse"
       id="clipPath173">
      <rect
         clip-path="url(#clipPath3337)"
         y="79.768837"
         x="-195.29546"
         height="370.90997"
         width="173.34364"
         id="rect175"
         style="fill:#edd400;fill-opacity:1;stroke:none"
         transform="matrix(0.3535143,0.3535143,-0.7071068,0.7071068,-7.6282079,-8.1634383)" />
    </clipPath>
    <clipPath
       clipPathUnits="userSpaceOnUse"
       id="clipPath177">
      <rect
         clip-path="url(#clipPath3337)"
         y="79.768837"
         x="-195.29546"
         height="370.90997"
         width="173.34364"
         id="rect179"
         style="fill:#edd400;fill-opacity:1;stroke:none"
         transform="matrix(0.3535143,0.3535143,-0.7071068,0.7071068,-7.6282079,-8.1634383)" />
    </clipPath>
    <clipPath
       clipPathUnits="userSpaceOnUse"
       id="clipPath181">
      <rect
         clip-path="url(#clipPath3337)"
         y="79.768837"
         x="-195.29546"
         height="370.90997"
         width="173.34364"
         id="rect183"
         style="fill:#edd400;fill-opacity:1;stroke:none"
         transform="matrix(0.3535143,0.3535143,-0.7071068,0.7071068,-7.6282079,-8.1634383)" />
    </clipPath>
    <clipPath
       clipPathUnits="userSpaceOnUse"
       id="clipPath185">
      <rect
         clip-path="url(#clipPath3337)"
         y="79.768837"
         x="-195.29546"
         height="370.90997"
         width="173.34364"
         id="rect187"
         style="fill:#edd400;fill-opacity:1;stroke:none"
         transform="matrix(0.3535143,0.3535143,-0.7071068,0.7071068,-7.6282079,-8.1634383)" />
    </clipPath>
    <clipPath
       clipPathUnits="userSpaceOnUse"
       id="clipPath189">
      <rect
         clip-path="url(#clipPath3337)"
         y="79.768837"
         x="-195.29546"
         height="370.90997"
         width="173.34364"
         id="rect191"
         style="fill:#edd400;fill-opacity:1;stroke:none"
         transform="matrix(0.3535143,0.3535143,-0.7071068,0.7071068,-7.6282079,-8.1634383)" />
    </clipPath>
    <clipPath
       clipPathUnits="userSpaceOnUse"
       id="clipPath193">
      <rect
         clip-path="url(#clipPath3337)"
         y="79.768837"
         x="-195.29546"
         height="370.90997"
         width="173.34364"
         id="rect195"
         style="fill:#edd400;fill-opacity:1;stroke:none"
         transform="matrix(0.3535143,0.3535143,-0.7071068,0.7071068,-7.6282079,-8.1634383)" />
    </clipPath>
    <clipPath
       clipPathUnits="userSpaceOnUse"
       id="clipPath197">
      <rect
         clip-path="url(#clipPath3337)"
         y="79.768837"
         x="-195.29546"
         height="370.90997"
         width="173.34364"
         id="rect199"
         style="fill:#edd400;fill-opacity:1;stroke:none"
         transform="matrix(0.3535143,0.3535143,-0.7071068,0.7071068,-7.6282079,-8.1634383)" />
    </clipPath>
    <inkscape:perspective
       id="perspective2788"
       inkscape:persp3d-origin="0.5 : 0.33333333 : 1"
       inkscape:vp_z="1 : 0.5 : 1"
       inkscape:vp_y="0 : 1000 : 0"
       inkscape:vp_x="0 : 0.5 : 1"
       sodipodi:type="inkscape:persp3d" />
    <inkscape:perspective
       id="perspective2843"
       inkscape:persp3d-origin="0.5 : 0.33333333 : 1"
       inkscape:vp_z="1 : 0.5 : 1"
       inkscape:vp_y="0 : 1000 : 0"
       inkscape:vp_x="0 : 0.5 : 1"
       sodipodi:type="inkscape:persp3d" />
    <inkscape:perspective
       id="perspective288"
       inkscape:persp3d-origin="0.5 : 0.33333333 : 1"
       inkscape:vp_z="1 : 0.5 : 1"
       inkscape:vp_y="0 : 1000 : 0"
       inkscape:vp_x="0 : 0.5 : 1"
       sodipodi:type="inkscape:persp3d" />
    <inkscape:perspective
       id="perspective2975"
       inkscape:persp3d-origin="0.5 : 0.33333333 : 1"
       inkscape:vp_z="1 : 0.5 : 1"
       inkscape:vp_y="0 : 1000 : 0"
       inkscape:vp_x="0 : 0.5 : 1"
       sodipodi:type="inkscape:persp3d" />
    <inkscape:perspective
       id="perspective3089"
       inkscape:persp3d-origin="0.5 : 0.33333333 : 1"
       inkscape:vp_z="1 : 0.5 : 1"
       inkscape:vp_y="0 : 1000 : 0"
       inkscape:vp_x="0 : 0.5 : 1"
       sodipodi:type="inkscape:persp3d" />
    <clipPath
       clipPathUnits="userSpaceOnUse"
       id="clipPath3193">
      <rect
         style="fill:#ffffff;stroke:none"
         id="rect3195"
         width="234.63934"
         height="93.855736"
         x="-461.31494"
         y="466.78241"
         ry="0" />
    </clipPath>
    <inkscape:perspective
       id="perspective3205"
       inkscape:persp3d-origin="0.5 : 0.33333333 : 1"
       inkscape:vp_z="1 : 0.5 : 1"
       inkscape:vp_y="0 : 1000 : 0"
       inkscape:vp_x="0 : 0.5 : 1"
       sodipodi:type="inkscape:persp3d" />
    <clipPath
       clipPathUnits="userSpaceOnUse"
       id="clipPath3193-7">
      <rect
         style="fill:#ffffff;stroke:none"
         id="rect3195-9"
         width="234.63934"
         height="93.855736"
         x="-461.31494"
         y="466.78241"
         ry="0" />
    </clipPath>
    <clipPath
       clipPathUnits="userSpaceOnUse"
       id="clipPath2960-9">
      <rect
         clip-path="url(#clipPath3337)"
         y="79.768837"
         x="-195.29546"
         height="370.90997"
         width="173.34364"
         id="rect2962-5"
         style="fill:#edd400;fill-opacity:1;stroke:none"
         transform="matrix(0.4999447,0,0,1,-11.16638,-0.378465)" />
    </clipPath>
    <clipPath
       clipPathUnits="userSpaceOnUse"
       id="clipPath2956-9">
      <rect
         clip-path="url(#clipPath3337)"
         y="79.768837"
         x="-195.29546"
         height="370.90997"
         width="173.34364"
         id="rect2958-0"
         style="fill:#edd400;fill-opacity:1;stroke:none"
         transform="matrix(0.3535143,0.3535143,-0.7071068,0.7071068,-7.6282079,-8.1634383)" />
    </clipPath>
    <clipPath
       clipPathUnits="userSpaceOnUse"
       id="clipPath2952-4">
      <rect
         clip-path="url(#clipPath3337)"
         y="79.768837"
         x="-195.29546"
         height="370.90997"
         width="173.34364"
         id="rect2954-9"
         style="fill:#edd400;fill-opacity:1;stroke:none"
         transform="matrix(0.3535143,0.3535143,-0.7071068,0.7071068,-7.6282079,-8.1634383)" />
    </clipPath>
    <clipPath
       clipPathUnits="userSpaceOnUse"
       id="clipPath2948-2">
      <rect
         clip-path="url(#clipPath3337)"
         y="79.768837"
         x="-195.29546"
         height="370.90997"
         width="173.34364"
         id="rect2950-4"
         style="fill:#edd400;fill-opacity:1;stroke:none"
         transform="matrix(0.3535143,0.3535143,-0.7071068,0.7071068,-7.6282079,-8.1634383)" />
    </clipPath>
    <clipPath
       clipPathUnits="userSpaceOnUse"
       id="clipPath2944-3">
      <rect
         clip-path="url(#clipPath3337)"
         y="79.768837"
         x="-195.29546"
         height="370.90997"
         width="173.34364"
         id="rect2946-6"
         style="fill:#edd400;fill-opacity:1;stroke:none"
         transform="matrix(0.3535143,0.3535143,-0.7071068,0.7071068,-7.6282079,-8.1634383)" />
    </clipPath>
    <clipPath
       clipPathUnits="userSpaceOnUse"
       id="clipPath2940-1">
      <rect
         clip-path="url(#clipPath3337)"
         y="79.768837"
         x="-195.29546"
         height="370.90997"
         width="173.34364"
         id="rect2942-2"
         style="fill:#edd400;fill-opacity:1;stroke:none"
         transform="matrix(0.3535143,0.3535143,-0.7071068,0.7071068,-7.6282079,-8.1634383)" />
    </clipPath>
    <clipPath
       clipPathUnits="userSpaceOnUse"
       id="clipPath2936-8">
      <rect
         clip-path="url(#clipPath3337)"
         y="79.768837"
         x="-195.29546"
         height="370.90997"
         width="173.34364"
         id="rect2938-0"
         style="fill:#edd400;fill-opacity:1;stroke:none"
         transform="matrix(0.3535143,0.3535143,-0.7071068,0.7071068,-7.6282079,-8.1634383)" />
    </clipPath>
    <clipPath
       clipPathUnits="userSpaceOnUse"
       id="clipPath2932-2">
      <rect
         clip-path="url(#clipPath3337)"
         y="79.768837"
         x="-195.29546"
         height="370.90997"
         width="173.34364"
         id="rect2934-5"
         style="fill:#edd400;fill-opacity:1;stroke:none"
         transform="matrix(0.3535143,0.3535143,-0.7071068,0.7071068,-7.6282079,-8.1634383)" />
    </clipPath>
    <clipPath
       clipPathUnits="userSpaceOnUse"
       id="clipPath2928-0">
      <rect
         clip-path="url(#clipPath3337)"
         y="79.768837"
         x="-195.29546"
         height="370.90997"
         width="173.34364"
         id="rect2930-2"
         style="fill:#edd400;fill-opacity:1;stroke:none"
         transform="matrix(0.3535143,0.3535143,-0.7071068,0.7071068,-7.6282079,-8.1634383)" />
    </clipPath>
    <clipPath
       clipPathUnits="userSpaceOnUse"
       id="clipPath2924-0">
      <rect
         clip-path="url(#clipPath3337)"
         y="79.768837"
         x="-195.29546"
         height="370.90997"
         width="173.34364"
         id="rect2926-5"
         style="fill:#edd400;fill-opacity:1;stroke:none"
         transform="matrix(0.3535143,0.3535143,-0.7071068,0.7071068,-7.6282079,-8.1634383)" />
    </clipPath>
    <clipPath
       clipPathUnits="userSpaceOnUse"
       id="clipPath2920-9">
      <rect
         clip-path="url(#clipPath3337)"
         y="79.768837"
         x="-195.29546"
         height="370.90997"
         width="173.34364"
         id="rect2922-1"
         style="fill:#edd400;fill-opacity:1;stroke:none"
         transform="matrix(0.3535143,0.3535143,-0.7071068,0.7071068,-7.6282079,-8.1634383)" />
    </clipPath>
    <inkscape:perspective
       id="perspective3392"
       inkscape:persp3d-origin="0.5 : 0.33333333 : 1"
       inkscape:vp_z="1 : 0.5 : 1"
       inkscape:vp_y="0 : 1000 : 0"
       inkscape:vp_x="0 : 0.5 : 1"
       sodipodi:type="inkscape:persp3d" />
    <inkscape:perspective
       id="perspective3438"
       inkscape:persp3d-origin="0.5 : 0.33333333 : 1"
       inkscape:vp_z="1 : 0.5 : 1"
       inkscape:vp_y="0 : 1000 : 0"
       inkscape:vp_x="0 : 0.5 : 1"
       sodipodi:type="inkscape:persp3d" />
    <inkscape:perspective
       id="perspective3526"
       inkscape:persp3d-origin="0.5 : 0.33333333 : 1"
       inkscape:vp_z="1 : 0.5 : 1"
       inkscape:vp_y="0 : 1000 : 0"
       inkscape:vp_x="0 : 0.5 : 1"
       sodipodi:type="inkscape:persp3d" />
    <inkscape:perspective
       id="perspective3603"
       inkscape:persp3d-origin="0.5 : 0.33333333 : 1"
       inkscape:vp_z="1 : 0.5 : 1"
       inkscape:vp_y="0 : 1000 : 0"
       inkscape:vp_x="0 : 0.5 : 1"
       sodipodi:type="inkscape:persp3d" />
  </defs>
  <sodipodi:namedview
     id="base"
     pagecolor="#ffffff"
     bordercolor="#666666"
     borderopacity="1.0"
     inkscape:pageopacity="0.0"
     inkscape:pageshadow="2"
     inkscape:zoom="0.453266"
     inkscape:cx="372.04724"
     inkscape:cy="526.18109"
     inkscape:document-units="px"
     inkscape:current-layer="layer1"
     showgrid="false"
     inkscape:window-width="1280"
     inkscape:window-height="727"
     inkscape:window-x="0"
     inkscape:window-y="25"
     showguides="true"
     inkscape:guide-bbox="true" />
  <metadata
     id="metadata7">
    <rdf:RDF>
      <cc:Work
         rdf:about="">
        <dc:format>image/svg+xml</dc:format>
        <dc:type
           rdf:resource="http://purl.org/dc/dcmitype/StillImage" />
        <dc:title></dc:title>
      </cc:Work>
    </rdf:RDF>
  </metadata>
  <g
     inkscape:label="Layer 1"
     inkscape:groupmode="layer"
     id="layer1">
    <rect
       style="fill:#e6e6e6;fill-opacity:1;stroke:none"
       id="rect3005"
       width="721.43066"
       height="1030.3"
       x="8.8248396"
       y="13.23726" />
    <g
       id="g3179"
       transform="matrix(1.4346024,0,0,1.4346024,864.49473,-616.75639)"
       clip-path="url(#clipPath3193)">
      <path
         transform="matrix(0,1.1448192,-1.1463613,0,-108.21639,590.40497)"
         style="fill:#ffff00;fill-opacity:1;stroke:none"
         clip-path="url(#clipPath2960)"
         d="m -195.29546,79.768837 173.343647,0 0,370.909973 -173.343647,0 0,-370.909973 z"
         id="rect2453" />
      <path
         transform="matrix(0.81059985,0.80950944,-0.81059985,0.80950944,-108.21639,590.40497)"
         style="fill:#000000;fill-opacity:1;stroke:none"
         clip-path="url(#clipPath2956)"
         d="m -383.54156,-83.076958 349.715113,0 0,20.437897 -349.715113,0 0,-20.437897 z"
         id="rect3225" />
      <path
         transform="matrix(0.81059985,0.80950944,-0.81059985,0.80950944,-167.55113,425.64512)"
         style="fill:#000000;fill-opacity:1;stroke:none"
         clip-path="url(#clipPath2952)"
         d="m -395.58469,-45.34177 349.715122,0 0,20.437897 -349.715122,0 0,-20.437897 z"
         id="rect3227" />
      <path
         transform="matrix(0.81059985,0.80950944,-0.81059985,0.80950944,-108.21639,590.40497)"
         style="fill:#000000;fill-opacity:1;stroke:none"
         clip-path="url(#clipPath2948)"
         d="m -395.45087,-9.0785189 349.715122,0 0,20.4378969 -349.715122,0 0,-20.4378969 z"
         id="rect3235" />
      <path
         transform="matrix(0.81059985,0.80950944,-0.81059985,0.80950944,-108.21639,590.40497)"
         style="fill:#000000;fill-opacity:1;stroke:none"
         clip-path="url(#clipPath2944)"
         d="m -407.49402,28.65667 349.71512,0 0,20.437896 -349.71512,0 0,-20.437896 z"
         id="rect3237" />
      <path
         transform="matrix(0.81059985,0.80950944,-0.81059985,0.80950944,-108.21639,590.40497)"
         style="fill:#000000;fill-opacity:1;stroke:none"
         clip-path="url(#clipPath2940)"
         d="m -398.12714,66.391861 349.715122,0 0,20.437897 -349.715122,0 0,-20.437897 z"
         id="rect3239" />
      <path
         transform="matrix(0.81059985,0.80950944,-0.81059985,0.80950944,-108.21639,590.40497)"
         style="fill:#000000;fill-opacity:1;stroke:none"
         clip-path="url(#clipPath2936)"
         d="m -410.17026,104.12705 349.715121,0 0,20.4379 -349.715121,0 0,-20.4379 z"
         id="rect3241" />
      <path
         transform="matrix(0.81059985,0.80950944,-0.81059985,0.80950944,-108.21639,590.40497)"
         style="fill:#000000;fill-opacity:1;stroke:none"
         clip-path="url(#clipPath2932)"
         d="m -476.2738,141.327 349.71511,0 0,20.43789 -349.71511,0 0,-20.43789 z"
         id="rect3243" />
      <path
         transform="matrix(0.81059985,0.80950944,-0.81059985,0.80950944,-108.21639,590.40497)"
         style="fill:#000000;fill-opacity:1;stroke:none"
         clip-path="url(#clipPath2928)"
         d="m -488.31693,179.06218 349.71512,0 0,20.4379 -349.71512,0 0,-20.4379 z"
         id="rect3245" />
      <path
         transform="matrix(0.81059985,0.80950944,-0.81059985,0.80950944,-108.21639,590.40497)"
         style="fill:#000000;fill-opacity:1;stroke:none"
         clip-path="url(#clipPath2924)"
         d="m -482.69681,216.26213 349.71512,0 0,20.4379 -349.71512,0 0,-20.4379 z"
         id="rect3247" />
      <path
         transform="matrix(0.81059985,0.80950944,-0.81059985,0.80950944,-108.21639,590.40497)"
         style="fill:#000000;fill-opacity:1;stroke:none"
         clip-path="url(#clipPath2920)"
         d="m -494.73993,253.99731 349.71512,0 0,20.4379 -349.71512,0 0,-20.4379 z"
         id="rect3249" />
    </g>
    <g
       id="g3488"
       transform="translate(-5.0394751,334.57859)">
      <rect
         ry="0"
         y="47.934074"
         x="221.19525"
         height="133.93701"
         width="309.68503"
         id="rect12-1-7"
         style="fill:#ffffff;stroke:none" />
      <g
         style="fill:#000000"
         transform="matrix(0.43511256,0,0,0.43511256,218.05463,537.90316)"
         id="g3647-2-5">
        <g
           style="fill:#000000"
           transform="translate(-52.746502,-515.35803)"
           id="g3614-9-5">
          <path
             style="fill:#000000;fill-opacity:1;stroke:none"
             d="m 399.21875,-696.4375 c -33.39645,-10e-6 -60.53125,27.1348 -60.53125,60.53125 -10e-6,33.39646 27.1348,60.53125 60.53125,60.53125 33.39645,-10e-6 60.5,-27.13479 60.5,-60.53125 -10e-6,-33.39644 -27.10354,-60.53125 -60.5,-60.53125 z m 0,14.59375 c 25.37594,-10e-6 45.9375,20.56157 45.9375,45.9375 -10e-6,25.37595 -20.56156,45.96875 -45.9375,45.96875 -25.37594,-10e-6 -45.96875,-20.59281 -45.96875,-45.96875 -10e-6,-25.37593 20.59282,-45.9375 45.96875,-45.9375 z"
             id="path3616-2-8"
             transform="translate(61.97281,179.10071)" />
          <path
             sodipodi:nodetypes="cccsssccssc"
             id="path3618-5-2"
             style="fill:#000000"
             d="m 460.73987,-490.07749 c -15.7668,0 -28.97728,10.98145 -32.40279,25.7105 l 17.09973,0 c 2.86863,-6.2474 7.98225,-10.58667 15.30306,-10.58667 10.01802,0 16.94794,8.13056 16.94794,18.14858 0,10.01802 -6.92992,16.94743 -16.94794,16.94743 -7.32082,0 -12.43443,-3.13811 -15.30306,-9.38551 l -17.09973,0 c 3.42551,14.72906 16.63599,25.71049 32.40279,25.71049 18.36637,0 33.27241,-14.90604 33.27241,-33.27241 0,-18.36637 -14.90604,-33.27241 -33.27241,-33.27241 z" />
        </g>
        <path
           style="font-size:90px;font-style:normal;font-variant:normal;font-weight:bold;font-stretch:normal;text-align:start;line-height:125%;writing-mode:lr-tb;text-anchor:start;fill:#000000;fill-opacity:1;stroke:none;font-family:Futura BT;-inkscape-font-specification:Futura BT Bold"
           d="m 230.36358,-1005.9136 c -4.59963,10e-5 -9.00002,0.8653 -13.21874,2.5937 -4.18948,1.6993 -7.90042,4.11732 -11.09376,7.28132 -3.31055,3.19341 -5.83399,6.83404 -7.5625,10.90625 -1.69922,4.04301 -2.53125,8.36919 -2.53125,12.96875 0,4.57034 0.83203,8.86527 2.53125,12.9375 1.72851,4.07229 4.25195,7.71288 7.5625,10.90625 3.19334,3.16406 6.90428,5.61521 11.09376,7.34375 4.21872,1.69922 8.61911,2.56247 13.21874,2.5625 4.54098,0 8.9062,-0.86331 13.125,-2.5625 4.2187,-1.72851 7.9687,-4.17971 11.25,-7.34375 3.25189,-3.19335 5.73822,-6.80076 7.4375,-10.84375 1.69914,-4.04294 2.56243,-8.37105 2.5625,-13 -7e-5,-4.59957 -0.86531,-8.95893 -2.59375,-13.03125 -1.69929,-4.07222 -4.18365,-7.67963 -7.40625,-10.84375 -3.22271,-3.16401 -6.9395,-5.58202 -11.18749,-7.28132 -4.21879,-1.7284 -8.61724,-2.5936 -13.18751,-2.5937 z m 0,14.84377 c 4.77535,5e-5 8.77731,1.80279 12,5.40625 3.2226,3.60356 4.81245,8.10942 4.8125,13.5 -5e-5,5.44925 -1.58794,9.95706 -4.78125,13.53125 -3.16411,3.57423 -7.16801,5.34377 -12.03125,5.34375 -4.95121,10e-6 -8.99025,-1.76756 -12.125,-5.3125 -3.13478,-3.5449 -4.71877,-8.05465 -4.71875,-13.5625 -2e-5,-5.41988 1.58592,-9.92573 4.75001,-13.5 3.19332,-3.60347 7.23042,-5.40619 12.09374,-5.40625 z"
           id="path3620-9-7" />
        <path
           style="font-size:90px;font-style:normal;font-variant:normal;font-weight:bold;font-stretch:normal;text-align:start;line-height:125%;writing-mode:lr-tb;text-anchor:start;fill:#000000;fill-opacity:1;stroke:none;font-family:Futura BT;-inkscape-font-specification:Futura BT Bold"
           d="m 306.35744,-1005.9136 c -4.59965,10e-5 -9.03128,0.8653 -13.25,2.5937 -4.18948,1.6993 -7.86915,4.11732 -11.0625,7.28132 -3.31056,3.19341 -5.83399,6.83404 -7.5625,10.90625 -1.69921,4.04301 -2.53125,8.36919 -2.53125,12.96875 0,4.57034 0.83203,8.86527 2.53125,12.9375 1.72852,4.07229 4.25194,7.71288 7.5625,10.90625 3.19335,3.16406 6.87302,5.61521 11.0625,7.34375 4.21872,1.69922 8.65035,2.56247 13.25,2.5625 4.54098,0 8.9062,-0.86331 13.125,-2.5625 4.2187,-1.72851 7.9687,-4.17971 11.25,-7.34375 3.25189,-3.19335 5.73822,-6.80076 7.4375,-10.84375 1.69916,-4.04294 2.53118,-8.37105 2.53125,-13 -7e-5,-4.59957 -0.86531,-8.95893 -2.59375,-13.03125 -1.69929,-4.07222 -4.15242,-7.67963 -7.375,-10.84375 -3.2227,-3.16401 -6.97075,-5.58202 -11.21875,-7.28132 -4.2188,-1.7284 -8.58597,-2.5936 -13.15625,-2.5937 z m 0,14.84377 c 4.77534,5e-5 8.77729,1.80279 12,5.40625 3.22261,3.60356 4.81245,8.10942 4.8125,13.5 -5e-5,5.44925 -1.58794,9.95706 -4.78125,13.53125 -3.16411,3.57423 -7.16801,5.34377 -12.03125,5.34375 -4.95121,10e-6 -9.02151,-1.76756 -12.15625,-5.3125 -3.13478,-3.5449 -4.68751,-8.05465 -4.6875,-13.5625 -10e-6,-5.41988 1.58591,-9.92573 4.75,-13.5 3.19334,-3.60347 7.23043,-5.40619 12.09375,-5.40625 z"
           id="path3622-2-8" />
        <path
           style="font-size:90px;font-style:normal;font-variant:normal;font-weight:bold;font-stretch:normal;text-align:start;line-height:125%;writing-mode:lr-tb;text-anchor:start;fill:#000000;fill-opacity:1;stroke:none;font-family:Futura BT;-inkscape-font-specification:Futura BT Bold"
           d="m 510.56392,-1005.9136 c -4.59965,10e-5 -9.03128,0.8653 -13.25001,2.5937 -4.18947,1.6993 -7.86915,4.11732 -11.06249,7.28132 -3.31057,3.19341 -5.83401,6.83404 -7.5625,10.90625 -1.69922,4.04301 -2.53126,8.36919 -2.53125,12.96875 -10e-6,4.57034 0.83202,8.86527 2.53125,12.9375 1.72851,4.07229 4.25193,7.71288 7.5625,10.90625 3.19334,3.16406 6.87302,5.61521 11.06249,7.34375 4.21873,1.69922 8.65036,2.56247 13.25001,2.5625 4.54097,0 8.9062,-0.86331 13.12499,-2.5625 4.21871,-1.72851 7.9687,-4.17971 11.25001,-7.34375 3.25188,-3.19335 5.73822,-6.80076 7.43749,-10.84375 1.69916,-4.04294 2.53119,-8.37105 2.53126,-13 -7e-5,-4.59957 -0.86531,-8.95893 -2.59375,-13.03125 -1.69929,-4.07222 -4.15243,-7.67963 -7.375,-10.84375 -3.22272,-3.16401 -6.97076,-5.58202 -11.21875,-7.28132 -4.2188,-1.7284 -8.58599,-2.5936 -13.15625,-2.5937 z m 0,14.84377 c 4.77534,5e-5 8.77728,1.80279 12,5.40625 3.22259,3.60356 4.81244,8.10942 4.81249,13.5 -5e-5,5.44925 -1.58793,9.95706 -4.78124,13.53125 -3.16412,3.57423 -7.16802,5.34377 -12.03125,5.34375 -4.95121,10e-6 -9.02151,-1.76756 -12.15625,-5.3125 -3.1348,-3.5449 -4.68753,-8.05465 -4.6875,-13.5625 -3e-5,-5.41988 1.5859,-9.92573 4.75,-13.5 3.19333,-3.60347 7.23043,-5.40619 12.09375,-5.40625 z"
           id="path3624-8-6" />
        <path
           style="font-size:90px;font-style:normal;font-variant:normal;font-weight:bold;font-stretch:normal;text-align:start;line-height:125%;writing-mode:lr-tb;text-anchor:start;fill:#000000;fill-opacity:1;stroke:none;font-family:Futura BT;-inkscape-font-specification:Futura BT Bold"
           d="m 552.12026,-1004.3355 0,64.34382 16.4375,0 0,-25.18752 14.78125,25.18752 19.81249,0 -17.53124,-25.93752 c 4.68746,-1.02536 8.25584,-3.08199 10.6875,-6.1875 2.46089,-3.13472 3.68741,-7.20698 3.6875,-12.1875 -6e-5,-3.2812 -0.64651,-6.27533 -1.90625,-9 -1.23053,-2.72455 -2.99814,-4.96086 -5.3125,-6.7188 -2.05084,-1.5527 -4.50198,-2.6679 -7.34375,-3.3125 -2.81255,-0.6738 -7.79109,-0.9999 -14.96875,-1 l -18.34375,0 z m 16.4375,13.50006 3.53125,0 c 3.83785,4e-5 6.54491,0.68559 8.15625,2.06249 1.64059,1.34771 2.46873,3.62115 2.46875,6.84375 -5e-5,2.75394 -0.8672,4.77348 -2.625,6.0625 -1.72855,1.2891 -4.50195,1.93754 -8.28125,1.9375 l -3.25,0 0,-16.90624 z"
           id="path3626-9-9" />
        <path
           style="font-size:90px;font-style:normal;font-variant:normal;font-weight:bold;font-stretch:normal;text-align:start;line-height:125%;writing-mode:lr-tb;text-anchor:start;fill:#000000;fill-opacity:1;stroke:none;font-family:Futura BT;-inkscape-font-specification:Futura BT Bold"
           d="m 610.3641,-1004.3354 0,64.3437 16.43749,0 0,-21.21875 3.18751,0 2.96875,0 c 5.41988,2e-5 9.38281,-0.32224 11.84374,-0.9375 2.46091,-0.61521 4.58978,-1.62497 6.40625,-3.03125 2.40229,-1.87497 4.20696,-4.25583 5.43751,-7.15625 1.23041,-2.92966 1.84373,-6.31832 1.84375,-10.15626 -5e-5,-3.60347 -0.61526,-6.88276 -1.87501,-9.8125 -1.23051,-2.95893 -3.03328,-5.41204 -5.40625,-7.375 -2.02153,-1.69919 -4.47468,-2.89049 -7.37499,-3.59369 -2.90043,-0.7031 -7.94733,-1.0625 -15.12501,-1.0625 l -18.34374,0 z m 16.43749,13.84369 3.53126,0 c 4.16011,5e-5 7.04681,0.57623 8.6875,1.71875 1.64058,1.14262 2.46875,3.05474 2.46875,5.75 -3e-5,2.78325 -0.83008,4.76567 -2.5,5.9375 -1.66995,1.14261 -4.625,1.71879 -8.84375,1.71875 l -3.34376,0 0,-15.125 z"
           id="path3628-0-6" />
        <g
           style="fill:#000000"
           transform="translate(-38.603082,-515.35803)"
           id="g3630-0-3">
          <path
             id="path3632-5-9"
             d="m 147.11139,-424.63711 0,-64.33593 39.41895,0 0,14.10644 -22.32422,0 0,11.16211 21.0498,0 0,13.79883 -21.0498,0 0,25.26855 -17.09473,0"
             style="font-size:90px;font-style:normal;font-variant:normal;font-weight:bold;font-stretch:normal;text-align:start;line-height:125%;writing-mode:lr-tb;text-anchor:start;fill:#000000;fill-opacity:1;stroke:none;font-family:Futura BT;-inkscape-font-specification:Futura BT Bold" />
          <path
             style="fill:#000000;fill-opacity:1;stroke:none"
             d="m 104.84375,-696.4375 c -33.39645,-10e-6 -60.53125,27.1348 -60.53125,60.53125 0,33.39646 27.1348,60.53125 60.53125,60.53125 33.39646,-10e-6 60.53125,-27.13479 60.53125,-60.53125 0,-33.39644 -27.13479,-60.53125 -60.53125,-60.53125 z m 0,14.59375 c 25.37594,-10e-6 45.96875,20.56157 45.96875,45.9375 0,25.37595 -20.59281,45.96875 -45.96875,45.96875 -25.37593,-10e-6 -45.9375,-20.59281 -45.9375,-45.96875 0,-25.37593 20.56157,-45.9375 45.9375,-45.9375 z"
             transform="translate(61.97281,179.10071)"
             id="path3634-7-6" />
        </g>
      </g>
    </g>
    <g
       id="g3179-6"
       transform="matrix(1.4346024,0,0,1.4346024,864.49473,-452.12259)"
       clip-path="url(#clipPath3193-7)">
      <path
         transform="matrix(0,1.1448192,-1.1463613,0,-108.21639,590.40497)"
         style="fill:#ffffff;fill-opacity:1;stroke:none"
         clip-path="url(#clipPath2960-9)"
         d="m -195.29546,79.768837 173.343647,0 0,370.909973 -173.343647,0 0,-370.909973 z"
         id="rect2453-9" />
      <path
         transform="matrix(0.81059985,0.80950944,-0.81059985,0.80950944,-108.21639,590.40497)"
         style="fill:#000000;fill-opacity:1;stroke:none"
         clip-path="url(#clipPath2956-9)"
         d="m -383.54156,-83.076958 349.715113,0 0,20.437897 -349.715113,0 0,-20.437897 z"
         id="rect3225-3" />
      <path
         transform="matrix(0.81059985,0.80950944,-0.81059985,0.80950944,-167.55113,425.64512)"
         style="fill:#000000;fill-opacity:1;stroke:none"
         clip-path="url(#clipPath2952-4)"
         d="m -395.58469,-45.34177 349.715122,0 0,20.437897 -349.715122,0 0,-20.437897 z"
         id="rect3227-0" />
      <path
         transform="matrix(0.81059985,0.80950944,-0.81059985,0.80950944,-108.21639,590.40497)"
         style="fill:#000000;fill-opacity:1;stroke:none"
         clip-path="url(#clipPath2948-2)"
         d="m -395.45087,-9.0785189 349.715122,0 0,20.4378969 -349.715122,0 0,-20.4378969 z"
         id="rect3235-8" />
      <path
         transform="matrix(0.81059985,0.80950944,-0.81059985,0.80950944,-108.21639,590.40497)"
         style="fill:#000000;fill-opacity:1;stroke:none"
         clip-path="url(#clipPath2944-3)"
         d="m -407.49402,28.65667 349.71512,0 0,20.437896 -349.71512,0 0,-20.437896 z"
         id="rect3237-7" />
      <path
         transform="matrix(0.81059985,0.80950944,-0.81059985,0.80950944,-108.21639,590.40497)"
         style="fill:#000000;fill-opacity:1;stroke:none"
         clip-path="url(#clipPath2940-1)"
         d="m -398.12714,66.391861 349.715122,0 0,20.437897 -349.715122,0 0,-20.437897 z"
         id="rect3239-6" />
      <path
         transform="matrix(0.81059985,0.80950944,-0.81059985,0.80950944,-108.21639,590.40497)"
         style="fill:#000000;fill-opacity:1;stroke:none"
         clip-path="url(#clipPath2936-8)"
         d="m -410.17026,104.12705 349.715121,0 0,20.4379 -349.715121,0 0,-20.4379 z"
         id="rect3241-7" />
      <path
         transform="matrix(0.81059985,0.80950944,-0.81059985,0.80950944,-108.21639,590.40497)"
         style="fill:#000000;fill-opacity:1;stroke:none"
         clip-path="url(#clipPath2932-2)"
         d="m -476.2738,141.327 349.71511,0 0,20.43789 -349.71511,0 0,-20.43789 z"
         id="rect3243-6" />
      <path
         transform="matrix(0.81059985,0.80950944,-0.81059985,0.80950944,-108.21639,590.40497)"
         style="fill:#000000;fill-opacity:1;stroke:none"
         clip-path="url(#clipPath2928-0)"
         d="m -488.31693,179.06218 349.71512,0 0,20.4379 -349.71512,0 0,-20.4379 z"
         id="rect3245-6" />
      <path
         transform="matrix(0.81059985,0.80950944,-0.81059985,0.80950944,-108.21639,590.40497)"
         style="fill:#000000;fill-opacity:1;stroke:none"
         clip-path="url(#clipPath2924-0)"
         d="m -482.69681,216.26213 349.71512,0 0,20.4379 -349.71512,0 0,-20.4379 z"
         id="rect3247-4" />
      <path
         transform="matrix(0.81059985,0.80950944,-0.81059985,0.80950944,-108.21639,590.40497)"
         style="fill:#000000;fill-opacity:1;stroke:none"
         clip-path="url(#clipPath2920-9)"
         d="m -494.73993,253.99731 349.71512,0 0,20.4379 -349.71512,0 0,-20.4379 z"
         id="rect3249-5" />
    </g>
    <g
       id="g3503"
       transform="translate(-185.42207,418.37041)">
      <rect
         ry="0"
         y="128.77605"
         x="401.57785"
         height="133.93701"
         width="309.68503"
         id="rect12-1-7-4"
         style="fill:#000000;stroke:none" />
      <g
         style="fill:#ffffff"
         transform="matrix(0.43511256,0,0,0.43511256,398.43721,618.74514)"
         id="g3647-2-5-4">
        <g
           style="fill:#ffffff"
           transform="translate(-52.746502,-515.35803)"
           id="g3614-9-5-5">
          <path
             style="fill:#ffffff;fill-opacity:1;stroke:none"
             d="m 399.21875,-696.4375 c -33.39645,-10e-6 -60.53125,27.1348 -60.53125,60.53125 -10e-6,33.39646 27.1348,60.53125 60.53125,60.53125 33.39645,-10e-6 60.5,-27.13479 60.5,-60.53125 -10e-6,-33.39644 -27.10354,-60.53125 -60.5,-60.53125 z m 0,14.59375 c 25.37594,-10e-6 45.9375,20.56157 45.9375,45.9375 -10e-6,25.37595 -20.56156,45.96875 -45.9375,45.96875 -25.37594,-10e-6 -45.96875,-20.59281 -45.96875,-45.96875 -10e-6,-25.37593 20.59282,-45.9375 45.96875,-45.9375 z"
             id="path3616-2-8-8"
             transform="translate(61.97281,179.10071)" />
          <path
             sodipodi:nodetypes="cccsssccssc"
             id="path3618-5-2-6"
             style="fill:#ffffff"
             d="m 460.73987,-490.07749 c -15.7668,0 -28.97728,10.98145 -32.40279,25.7105 l 17.09973,0 c 2.86863,-6.2474 7.98225,-10.58667 15.30306,-10.58667 10.01802,0 16.94794,8.13056 16.94794,18.14858 0,10.01802 -6.92992,16.94743 -16.94794,16.94743 -7.32082,0 -12.43443,-3.13811 -15.30306,-9.38551 l -17.09973,0 c 3.42551,14.72906 16.63599,25.71049 32.40279,25.71049 18.36637,0 33.27241,-14.90604 33.27241,-33.27241 0,-18.36637 -14.90604,-33.27241 -33.27241,-33.27241 z" />
        </g>
        <path
           style="font-size:90px;font-style:normal;font-variant:normal;font-weight:bold;font-stretch:normal;text-align:start;line-height:125%;writing-mode:lr-tb;text-anchor:start;fill:#ffffff;fill-opacity:1;stroke:none;font-family:Futura BT;-inkscape-font-specification:Futura BT Bold"
           d="m 230.36358,-1005.9136 c -4.59963,10e-5 -9.00002,0.8653 -13.21874,2.5937 -4.18948,1.6993 -7.90042,4.11732 -11.09376,7.28132 -3.31055,3.19341 -5.83399,6.83404 -7.5625,10.90625 -1.69922,4.04301 -2.53125,8.36919 -2.53125,12.96875 0,4.57034 0.83203,8.86527 2.53125,12.9375 1.72851,4.07229 4.25195,7.71288 7.5625,10.90625 3.19334,3.16406 6.90428,5.61521 11.09376,7.34375 4.21872,1.69922 8.61911,2.56247 13.21874,2.5625 4.54098,0 8.9062,-0.86331 13.125,-2.5625 4.2187,-1.72851 7.9687,-4.17971 11.25,-7.34375 3.25189,-3.19335 5.73822,-6.80076 7.4375,-10.84375 1.69914,-4.04294 2.56243,-8.37105 2.5625,-13 -7e-5,-4.59957 -0.86531,-8.95893 -2.59375,-13.03125 -1.69929,-4.07222 -4.18365,-7.67963 -7.40625,-10.84375 -3.22271,-3.16401 -6.9395,-5.58202 -11.18749,-7.28132 -4.21879,-1.7284 -8.61724,-2.5936 -13.18751,-2.5937 z m 0,14.84377 c 4.77535,5e-5 8.77731,1.80279 12,5.40625 3.2226,3.60356 4.81245,8.10942 4.8125,13.5 -5e-5,5.44925 -1.58794,9.95706 -4.78125,13.53125 -3.16411,3.57423 -7.16801,5.34377 -12.03125,5.34375 -4.95121,10e-6 -8.99025,-1.76756 -12.125,-5.3125 -3.13478,-3.5449 -4.71877,-8.05465 -4.71875,-13.5625 -2e-5,-5.41988 1.58592,-9.92573 4.75001,-13.5 3.19332,-3.60347 7.23042,-5.40619 12.09374,-5.40625 z"
           id="path3620-9-7-4" />
        <path
           style="font-size:90px;font-style:normal;font-variant:normal;font-weight:bold;font-stretch:normal;text-align:start;line-height:125%;writing-mode:lr-tb;text-anchor:start;fill:#ffffff;fill-opacity:1;stroke:none;font-family:Futura BT;-inkscape-font-specification:Futura BT Bold"
           d="m 306.35744,-1005.9136 c -4.59965,10e-5 -9.03128,0.8653 -13.25,2.5937 -4.18948,1.6993 -7.86915,4.11732 -11.0625,7.28132 -3.31056,3.19341 -5.83399,6.83404 -7.5625,10.90625 -1.69921,4.04301 -2.53125,8.36919 -2.53125,12.96875 0,4.57034 0.83203,8.86527 2.53125,12.9375 1.72852,4.07229 4.25194,7.71288 7.5625,10.90625 3.19335,3.16406 6.87302,5.61521 11.0625,7.34375 4.21872,1.69922 8.65035,2.56247 13.25,2.5625 4.54098,0 8.9062,-0.86331 13.125,-2.5625 4.2187,-1.72851 7.9687,-4.17971 11.25,-7.34375 3.25189,-3.19335 5.73822,-6.80076 7.4375,-10.84375 1.69916,-4.04294 2.53118,-8.37105 2.53125,-13 -7e-5,-4.59957 -0.86531,-8.95893 -2.59375,-13.03125 -1.69929,-4.07222 -4.15242,-7.67963 -7.375,-10.84375 -3.2227,-3.16401 -6.97075,-5.58202 -11.21875,-7.28132 -4.2188,-1.7284 -8.58597,-2.5936 -13.15625,-2.5937 z m 0,14.84377 c 4.77534,5e-5 8.77729,1.80279 12,5.40625 3.22261,3.60356 4.81245,8.10942 4.8125,13.5 -5e-5,5.44925 -1.58794,9.95706 -4.78125,13.53125 -3.16411,3.57423 -7.16801,5.34377 -12.03125,5.34375 -4.95121,10e-6 -9.02151,-1.76756 -12.15625,-5.3125 -3.13478,-3.5449 -4.68751,-8.05465 -4.6875,-13.5625 -10e-6,-5.41988 1.58591,-9.92573 4.75,-13.5 3.19334,-3.60347 7.23043,-5.40619 12.09375,-5.40625 z"
           id="path3622-2-8-0" />
        <path
           style="font-size:90px;font-style:normal;font-variant:normal;font-weight:bold;font-stretch:normal;text-align:start;line-height:125%;writing-mode:lr-tb;text-anchor:start;fill:#ffffff;fill-opacity:1;stroke:none;font-family:Futura BT;-inkscape-font-specification:Futura BT Bold"
           d="m 510.56392,-1005.9136 c -4.59965,10e-5 -9.03128,0.8653 -13.25001,2.5937 -4.18947,1.6993 -7.86915,4.11732 -11.06249,7.28132 -3.31057,3.19341 -5.83401,6.83404 -7.5625,10.90625 -1.69922,4.04301 -2.53126,8.36919 -2.53125,12.96875 -10e-6,4.57034 0.83202,8.86527 2.53125,12.9375 1.72851,4.07229 4.25193,7.71288 7.5625,10.90625 3.19334,3.16406 6.87302,5.61521 11.06249,7.34375 4.21873,1.69922 8.65036,2.56247 13.25001,2.5625 4.54097,0 8.9062,-0.86331 13.12499,-2.5625 4.21871,-1.72851 7.9687,-4.17971 11.25001,-7.34375 3.25188,-3.19335 5.73822,-6.80076 7.43749,-10.84375 1.69916,-4.04294 2.53119,-8.37105 2.53126,-13 -7e-5,-4.59957 -0.86531,-8.95893 -2.59375,-13.03125 -1.69929,-4.07222 -4.15243,-7.67963 -7.375,-10.84375 -3.22272,-3.16401 -6.97076,-5.58202 -11.21875,-7.28132 -4.2188,-1.7284 -8.58599,-2.5936 -13.15625,-2.5937 z m 0,14.84377 c 4.77534,5e-5 8.77728,1.80279 12,5.40625 3.22259,3.60356 4.81244,8.10942 4.81249,13.5 -5e-5,5.44925 -1.58793,9.95706 -4.78124,13.53125 -3.16412,3.57423 -7.16802,5.34377 -12.03125,5.34375 -4.95121,10e-6 -9.02151,-1.76756 -12.15625,-5.3125 -3.1348,-3.5449 -4.68753,-8.05465 -4.6875,-13.5625 -3e-5,-5.41988 1.5859,-9.92573 4.75,-13.5 3.19333,-3.60347 7.23043,-5.40619 12.09375,-5.40625 z"
           id="path3624-8-6-7" />
        <path
           style="font-size:90px;font-style:normal;font-variant:normal;font-weight:bold;font-stretch:normal;text-align:start;line-height:125%;writing-mode:lr-tb;text-anchor:start;fill:#ffffff;fill-opacity:1;stroke:none;font-family:Futura BT;-inkscape-font-specification:Futura BT Bold"
           d="m 552.12026,-1004.3355 0,64.34382 16.4375,0 0,-25.18752 14.78125,25.18752 19.81249,0 -17.53124,-25.93752 c 4.68746,-1.02536 8.25584,-3.08199 10.6875,-6.1875 2.46089,-3.13472 3.68741,-7.20698 3.6875,-12.1875 -6e-5,-3.2812 -0.64651,-6.27533 -1.90625,-9 -1.23053,-2.72455 -2.99814,-4.96086 -5.3125,-6.7188 -2.05084,-1.5527 -4.50198,-2.6679 -7.34375,-3.3125 -2.81255,-0.6738 -7.79109,-0.9999 -14.96875,-1 l -18.34375,0 z m 16.4375,13.50006 3.53125,0 c 3.83785,4e-5 6.54491,0.68559 8.15625,2.06249 1.64059,1.34771 2.46873,3.62115 2.46875,6.84375 -5e-5,2.75394 -0.8672,4.77348 -2.625,6.0625 -1.72855,1.2891 -4.50195,1.93754 -8.28125,1.9375 l -3.25,0 0,-16.90624 z"
           id="path3626-9-9-0" />
        <path
           style="font-size:90px;font-style:normal;font-variant:normal;font-weight:bold;font-stretch:normal;text-align:start;line-height:125%;writing-mode:lr-tb;text-anchor:start;fill:#ffffff;fill-opacity:1;stroke:none;font-family:Futura BT;-inkscape-font-specification:Futura BT Bold"
           d="m 610.3641,-1004.3354 0,64.3437 16.43749,0 0,-21.21875 3.18751,0 2.96875,0 c 5.41988,2e-5 9.38281,-0.32224 11.84374,-0.9375 2.46091,-0.61521 4.58978,-1.62497 6.40625,-3.03125 2.40229,-1.87497 4.20696,-4.25583 5.43751,-7.15625 1.23041,-2.92966 1.84373,-6.31832 1.84375,-10.15626 -5e-5,-3.60347 -0.61526,-6.88276 -1.87501,-9.8125 -1.23051,-2.95893 -3.03328,-5.41204 -5.40625,-7.375 -2.02153,-1.69919 -4.47468,-2.89049 -7.37499,-3.59369 -2.90043,-0.7031 -7.94733,-1.0625 -15.12501,-1.0625 l -18.34374,0 z m 16.43749,13.84369 3.53126,0 c 4.16011,5e-5 7.04681,0.57623 8.6875,1.71875 1.64058,1.14262 2.46875,3.05474 2.46875,5.75 -3e-5,2.78325 -0.83008,4.76567 -2.5,5.9375 -1.66995,1.14261 -4.625,1.71879 -8.84375,1.71875 l -3.34376,0 0,-15.125 z"
           id="path3628-0-6-0" />
        <g
           style="fill:#ffffff"
           transform="translate(-38.603082,-515.35803)"
           id="g3630-0-3-8">
          <path
             id="path3632-5-9-4"
             d="m 147.11139,-424.63711 0,-64.33593 39.41895,0 0,14.10644 -22.32422,0 0,11.16211 21.0498,0 0,13.79883 -21.0498,0 0,25.26855 -17.09473,0"
             style="font-size:90px;font-style:normal;font-variant:normal;font-weight:bold;font-stretch:normal;text-align:start;line-height:125%;writing-mode:lr-tb;text-anchor:start;fill:#ffffff;fill-opacity:1;stroke:none;font-family:Futura BT;-inkscape-font-specification:Futura BT Bold" />
          <path
             style="fill:#ffffff;fill-opacity:1;stroke:none"
             d="m 104.84375,-696.4375 c -33.39645,-10e-6 -60.53125,27.1348 -60.53125,60.53125 0,33.39646 27.1348,60.53125 60.53125,60.53125 33.39646,-10e-6 60.53125,-27.13479 60.53125,-60.53125 0,-33.39644 -27.13479,-60.53125 -60.53125,-60.53125 z m 0,14.59375 c 25.37594,-10e-6 45.96875,20.56157 45.96875,45.9375 0,25.37595 -20.59281,45.96875 -45.96875,45.96875 -25.37593,-10e-6 -45.9375,-20.59281 -45.9375,-45.96875 0,-25.37593 20.56157,-45.9375 45.9375,-45.9375 z"
             transform="translate(61.97281,179.10071)"
             id="path3634-7-6-6" />
        </g>
      </g>
    </g>
    <g
       id="g3628"
       transform="translate(10.055862,357.17614)">
      <rect
         ry="0"
         y="354.6041"
         x="206.09991"
         height="133.93701"
         width="309.68503"
         id="rect12-1-7-3"
         style="fill:#ffffff;stroke:none" />
      <text
         sodipodi:linespacing="125%"
         id="text3356"
         y="-471.7735"
         x="377.77057"
         style="font-size:23.13813019px;font-style:normal;font-variant:normal;font-weight:bold;font-stretch:normal;text-align:start;line-height:125%;writing-mode:lr-tb;text-anchor:start;fill:#000000;fill-opacity:1;stroke:none;font-family:Futura Std;-inkscape-font-specification:Futura Std Bold"
         xml:space="preserve"
         transform="matrix(0,1,-1,0,0,0)"><tspan
           sodipodi:role="line"
           id="tspan2966"
           x="377.77057"
           y="-471.7735">FOO23</tspan></text>
    </g>
    <g
       id="g3623"
       transform="translate(-48.181595,269.15762)">
      <rect
         ry="0"
         y="607.25641"
         x="264.33737"
         height="133.93701"
         width="309.68503"
         id="rect12-1-7-3-5"
         style="fill:#000000;stroke:none" />
      <text
         transform="matrix(0,1,-1,0,0,0)"
         sodipodi:linespacing="125%"
         id="text3356-2"
         y="-290.61038"
         x="630.42291"
         style="font-size:23.13813019px;font-style:normal;font-variant:normal;font-weight:bold;font-stretch:normal;text-align:start;line-height:125%;writing-mode:lr-tb;text-anchor:start;fill:#ffffff;fill-opacity:1;stroke:none;font-family:Futura Std;-inkscape-font-specification:Futura Std Bold"
         xml:space="preserve"><tspan
           sodipodi:role="line"
           id="tspan2966-2"
           x="630.42291"
           y="-290.61038">FOO23</tspan></text>
    </g>
    <g
       id="g3412"
       transform="matrix(1.2432723,0,0,1.2402017,-217.4267,-167.78401)">
      <rect
         y="192.90613"
         x="809.4845"
         height="107.39904"
         width="248.09178"
         id="rect3398"
         style="fill:none;stroke:#000000;stroke-opacity:1" />
      <rect
         y="212.95395"
         x="829.71136"
         height="67.303398"
         width="207.63814"
         id="rect3400"
         style="fill:none;stroke:#00d900;stroke-width:1;stroke-linecap:round;stroke-linejoin:round;stroke-miterlimit:4;stroke-opacity:1;stroke-dasharray:2, 1;stroke-dashoffset:0" />
      <rect
         y="200.42139"
         x="816.8208"
         height="92.368515"
         width="233.41925"
         id="rect3402"
         style="fill:none;stroke:#f40000;stroke-width:0.99466217;stroke-linecap:round;stroke-linejoin:round;stroke-miterlimit:4;stroke-opacity:1;stroke-dasharray:1.98932441, 0.99466221;stroke-dashoffset:0" />
    </g>
    <text
       xml:space="preserve"
       style="font-size:40px;font-style:normal;font-variant:normal;font-weight:normal;font-stretch:normal;fill:#000000;fill-opacity:1;stroke:none;font-family:Sans;-inkscape-font-specification:Sans"
       x="825.12256"
       y="295.63214"
       id="text3633"><tspan
         sodipodi:role="line"
         id="tspan3635"
         x="825.12256"
         y="295.63214">^ Moo guidelines,</tspan><tspan
         sodipodi:role="line"
         x="825.12256"
         y="345.63214"
         id="tspan3637">red is bleed,</tspan><tspan
         sodipodi:role="line"
         x="825.12256"
         y="395.63214"
         id="tspan3641">green is safe.</tspan></text>
  </g>
</svg>
